Score
…
R package covid19germany

https://github.com/nevrome/covid19germany

## # A tibble: 12,773 x 13
##    IdBundesland Bundesland Landkreis Altersgruppe Geschlecht AnzahlFall
##           <int> <chr>      <chr>     <ord>        <fct>           <int>
##  1            3 Niedersac LK Cuxha A35-A59      M                   2
##  2            3 Niedersac LK Cuxha A35-A59      M                   1
##  3            3 Niedersac LK Cuxha A35-A59      W                   1
##  4            3 Niedersac LK Cuxha A35-A59      W                   2
##  5            3 Niedersac LK Cuxha A35-A59      W                   3
##  6            3 Niedersac LK Cuxha A35-A59      W                   3
##  7            3 Niedersac LK Cuxha A60-A79      M                   1
##  8            3 Niedersac LK Cuxha A60-A79      M                   1
##  9            3 Niedersac LK Cuxha A60-A79      M                   1
## 10            3 Niedersac LK Cuxha A60-A79      M                   1
## #  with 12,763 more rows, and 7 more variables: AnzahlTodesfall <int>,
## #   ObjectId <int>, Meldedatum <dttm>, IdLandkreis <int>, Datenstand <chr>,
## #   NeuerFall <dbl>, NeuerTodesfall <dbl>
…
##  4 Bremen                       419.   682986      338035     344951     1629
##  5 Nordrhein-Westfalen        34112. 17932651     8798631    9134020      526
##  6 Hessen                     21116.  6265809     3093044    3172765      297
##  7 Rheinland-Pfalz            19852.  4084844     2017576    2067268      206
##  8 Baden-Wrttemberg          35748. 11069533     5501693    5567840      310
##  9 Bayern                     70542. 13076721     6483793    6592928      185
## 10 Saarland                    2571.   990509      486159     504350      385
## 11 Berlin                       891.  3644826     1792801    1852025     4090
## 12 Brandenburg                29654.  2511917     1239460    1272457       85
## 13 Mecklenburg-Vorpommern     23294.  1609675      793639     816036       69
## 14 Sachsen                    18450.  4077937     2009619    2068318      221
## 15 Sachsen-Anhalt             20454.  2208321     1086679    1121642      108
## 16 Thringen                  16202.  2143145     1060814    1082331      132

## # A tibble: 401 x 8
##    IdLandkreis NameLandkreis NUTS3 FlaecheKm2 EwGesamt EwMaennlich EwWeiblich
##          <int> <chr>         <chr>      <dbl>    <int>       <int>      <int>
##  1        1001 Flensburg, S DEF01       56.7    89504       44599      44905
##  2        1002 Kiel, Landes DEF02      119.    247548      120566     126982
##  3        1003 Lbeck, Hans DEF03      214.    217198      104371     112827
##  4        1004 Neumnster,  DEF04       71.7    79487       39241      40246
##  5        1051 Dithmarschen  DEF05     1428.    133210       65720      67490
##  6        1053 Herzogtum La DEF06     1263.    197264       96881     100383
##  7        1054 Nordfriesland DEF07     2084.    165507       81099      84408
##  8        1055 Ostholstein   DEF08     1393.    200581       96765     103816
##  9        1056 Pinneberg     DEF09      664.    314391      154211     160180
## 10        1057 Pln          DEF0A     1084.    128647       62532      66115
## #  with 391 more rows, and 1 more variable: EwProKm2 <dbl>
…
